curl -o /etc/yum.repos.d/picoscope.repo https://labs.picotech.com/rpm/picoscope.repo
rpmkeys --import https://labs.picotech.com/rpm/repodata/repomd.xml.key
yum check-update
yum install picoscope



#sudo yum install -y gtk-sharp2
#wget https://labs.picotech.com/rpm/x86_64/

#for ii in libpicoipp-1.1.2-4r56.x86_64.rpm libpl1000-1.0.9-1r03.x86_64.rpm libps2000-2.1.6-3r05.x86_64.rpm libps2000a-1.1.6-5r18.x86_64.rpm libps3000-3.7.7-3r03.x86_64.rpm libps3000a-1.4.6-6r17.x86_64.rpm libps4000-1.2.6-2r07.x86_64.rpm libps4000a-1.0.6-2r16.x86_64.rpm libps5000-1.5.6-3r09.x86_64.rpm libps5000a-1.1.6-5r10.x86_64.rpm libps6000-1.4.6-6r13.x86_64.rpm libusbdrdaq-1.0.6-1r03.x86_64.rpm picomono-2.10.8-1r02.x86_64.rpm picoscope-6.11.13-4r3.noarch.rpm

